{"data":
	[
		{
            "seed":"minecraft:wheat_seeds",
            "block":"minecraft:wheat"
        },
        {
            "seed":"minecraft:carrot",
            "block":"minecraft:carrots"
        },
        {
            "seed":"minecraft:potato",
            "block":"minecraft:potatoes"
        },
        {
            "seed":"minecraft:nether_wart",
            "block":"minecraft:nether_wart",
            "meta":3
        },
        {
        	"seed":"etfuturum:beetroot_seeds",
        	"block":"etfuturum:beetroots",
        	"meta":7
        }
	]
}